{
    "CAN_BAUDRATE" : "250",
    "CustomerName" :"Okinawa",
    "BMS_CELLCOUNT" : 20,
    "CAN_PROTOCOL": "J1939",
    "PID_SCANNER" : "0x1300",
    "VID_SCANNER" : "0x05E0",
    "TestMode" : 1,
    "PDI_MODE" : "FCT_Charger",
    "Version": "v2_2_0",
    "RefVoltage": 4090,
    "printRawCAN": 0,
    "LOAD_CURRENT_DEFAULT": 2.35,
    "Current_Accuracy_percentage": 0.03,
    "CodeFlash_location": "../Final/Binary/bms_bq769x2_s32k11x.hex",
    "Charger_Test_Code_Loc": "../Final/Binary/smart_charger_oop_v2.hex",
    "Charger_Final_Code_Loc": "../Final/Binary/SC_V2_LECTRIX_3.6.0_HW_2.5.0_14S_LFP_20A_55.02V_06_08_2024_54673B4DAF6.hex",
    "Charger_Commit_ID": "54673B4DAF6",
    "VOLTAGE_ACCURACY": 50
}
